[
  {
    "name" : "diag1",
    "chartType" : "pie",
    "periodType" : "month"
  },
  {
    "name" : "diag2",
    "chartType" : "barstack",
    "periodType" : "day"
  },
  {
    "name" : "diag3",
    "chartType" : "barstack",
    "periodType" : "week"
  },
  {
    "name" : "diag4",
    "chartType" : "barstack",
    "periodType" : "month"
  }
]